<?xml version="1.0" encoding="UTF-8" standalone="no"?>
<svg width="70px" height="70px" viewBox="0 0 70 70" version="1.1" xmlns="http://www.w3.org/2000/svg" xmlns:xlink="http://www.w3.org/1999/xlink" xmlns:sketch="http://www.bohemiancoding.com/sketch/ns">
    <!-- Generator: Sketch 3.3.3 (12072) - http://www.bohemiancoding.com/sketch -->
    <title>Shape Copy 6</title>
    <desc>Created with Sketch.</desc>
    <defs></defs>
    <g id="Template-Editor---V005" stroke="none" stroke-width="1" fill="none" fill-rule="evenodd" sketch:type="MSPage">
        <g id="Template-Editor---Drag-&amp;-Drop" sketch:type="MSArtboardGroup" transform="translate(-448.000000, -246.000000)" fill="#F7F7F7">
            <path d="M483,246 C463.75,246 448,261.75 448,281 C448,300.25 463.75,316 483,316 C502.25,316 518,300.25 518,281 C518,261.75 502.25,246 483,246 L483,246 Z M500.5,284.5 L486.5,284.5 L486.5,298.5 L479.5,298.5 L479.5,284.5 L465.5,284.5 L465.5,277.5 L479.5,277.5 L479.5,263.5 L486.5,263.5 L486.5,277.5 L500.5,277.5 L500.5,284.5 L500.5,284.5 Z" id="Shape-Copy-6" sketch:type="MSShapeGroup"></path>
        </g>
    </g>
</svg>
